Creating Beautiful Data Visualizations in R:
…
---
# Choosing a mapping 

Image from Garrett Grolemund's [2019 JSM tidyverse tutorial](https://rstudio.cloud/project/385945). 

<img src="img/garrett-aes-vars.PNG" width="50%" style="display: block; margin: auto;" />

---
# Add a discrete/categorical variable

Recall the CPI data from before: it has data from the Chicago metro area and the Washington DC metro area. 

```
## # A tibble: 360 x 7
##     year period periodName   cpi area                       area_code date      
##    <dbl>  <dbl> <chr>      <dbl> <chr>                      <chr>     <date>    
##  1  1999      1 January     166. Chicago-Naperville-Elgin,… S23A      1999-01-01
##  2  1999      1 January     165. Washington-Arlington-Alex… S35A      1999-01-01
##  3  1999      2 February    166. Chicago-Naperville-Elgin,… S23A      1999-02-01
##  4  1999      3 March       167  Chicago-Naperville-Elgin,… S23A      1999-03-01
##  5  1999      3 March       166. Washington-Arlington-Alex… S35A      1999-03-01
##  6  1999      4 April       168. Chicago-Naperville-Elgin,… S23A      1999-04-01
##  7  1999      5 May         168. Chicago-Naperville-Elgin,… S23A      1999-05-01
##  8  1999      5 May         167  Washington-Arlington-Alex… S35A      1999-05-01
##  9  1999      6 June        169. Chicago-Naperville-Elgin,… S23A      1999-06-01
## 10  1999      7 July        169. Chicago-Naperville-Elgin,… S23A      1999-07-01
## # … with 350 more rows
```
…
