a quick intRo
…
---
# Some data cleaning 

The `janitor` package cleans things up nicely: 

```r
janitor::clean_names(iris)
```

```
## # A tibble: 150 x 5
##    sepal_length sepal_width petal_length petal_width species
##           <dbl>       <dbl>        <dbl>       <dbl> <chr>  
##  1          5.1         3.5          1.4         0.2 setosa 
##  2          4.9         3            1.4         0.2 setosa 
##  3          4.7         3.2          1.3         0.2 setosa 
##  4          4.6         3.1          1.5         0.2 setosa 
##  5          5           3.6          1.4         0.2 setosa 
##  6          5.4         3.9          1.7         0.4 setosa 
##  7          4.6         3.4          1.4         0.3 setosa 
##  8          5           3.4          1.5         0.2 setosa 
##  9          4.4         2.9          1.4         0.2 setosa 
## 10          4.9         3.1          1.5         0.1 setosa 
## # … with 140 more rows
```
…
---
# Some data cleaning 

```r
bob_ross %>% 
  gather(element, present, apple_frame:wood_framed)
```

```
## # A tibble: 27,001 x 4
##    episode title               element     present
##    <chr>   <chr>               <chr>         <int>
##  1 S01E01  A WALK IN THE WOODS apple_frame       0
##  2 S01E02  MT. MCKINLEY        apple_frame       0
##  3 S01E03  EBONY SUNSET        apple_frame       0
##  4 S01E04  WINTER MIST         apple_frame       0
##  5 S01E05  QUIET STREAM        apple_frame       0
##  6 S01E06  WINTER MOON         apple_frame       0
##  7 S01E07  AUTUMN MOUNTAINS    apple_frame       0
##  8 S01E08  PEACEFUL VALLEY     apple_frame       0
##  9 S01E09  SEASCAPE            apple_frame       0
## 10 S01E10  MOUNTAIN LAKE       apple_frame       0
## # … with 26,991 more rows
```

---
# Some data cleaning 

```r
bob_ross %>% 
  gather(element, present, apple_frame:wood_framed) %>% 
  mutate(present = as.logical(present)) 
```

```
## # A tibble: 27,001 x 4
##    episode title               element     present
##    <chr>   <chr>               <chr>       <lgl>  
##  1 S01E01  A WALK IN THE WOODS apple_frame FALSE  
##  2 S01E02  MT. MCKINLEY        apple_frame FALSE  
##  3 S01E03  EBONY SUNSET        apple_frame FALSE  
##  4 S01E04  WINTER MIST         apple_frame FALSE  
##  5 S01E05  QUIET STREAM        apple_frame FALSE  
##  6 S01E06  WINTER MOON         apple_frame FALSE  
##  7 S01E07  AUTUMN MOUNTAINS    apple_frame FALSE  
##  8 S01E08  PEACEFUL VALLEY     apple_frame FALSE  
##  9 S01E09  SEASCAPE            apple_frame FALSE  
## 10 S01E10  MOUNTAIN LAKE       apple_frame FALSE  
## # … with 26,991 more rows
```

---
# Some data cleaning 

```r
bob_ross %>% 
  gather(element, present, apple_frame:wood_framed) %>% 
  mutate(present = as.logical(present)) %>% 
  extract(episode, into = c("season", "ep_num"), 
          regex = "S(.*)E(.*)")
```

```
## # A tibble: 27,001 x 5
##    season ep_num title               element     present
##    <chr>  <chr>  <chr>               <chr>       <lgl>  
##  1 01     01     A WALK IN THE WOODS apple_frame FALSE  
##  2 01     02     MT. MCKINLEY        apple_frame FALSE  
##  3 01     03     EBONY SUNSET        apple_frame FALSE  
##  4 01     04     WINTER MIST         apple_frame FALSE  
##  5 01     05     QUIET STREAM        apple_frame FALSE  
##  6 01     06     WINTER MOON         apple_frame FALSE  
##  7 01     07     AUTUMN MOUNTAINS    apple_frame FALSE  
##  8 01     08     PEACEFUL VALLEY     apple_frame FALSE  
##  9 01     09     SEASCAPE            apple_frame FALSE  
## 10 01     10     MOUNTAIN LAKE       apple_frame FALSE  
## # … with 26,991 more rows
```

---
# Some data cleaning 

```r
bob_ross %>% 
  gather(element, present, apple_frame:wood_framed) %>% 
  mutate(present = as.logical(present)) %>% 
  extract(episode, into = c("season", "ep_num"), 
          regex = "S(.*)E(.*)") %>% 
  mutate_at(1:2, parse_number)
```

```
## # A tibble: 27,001 x 5
##    season ep_num title               element     present
##     <dbl>  <dbl> <chr>               <chr>       <lgl>  
##  1      1      1 A WALK IN THE WOODS apple_frame FALSE  
##  2      1      2 MT. MCKINLEY        apple_frame FALSE  
##  3      1      3 EBONY SUNSET        apple_frame FALSE  
##  4      1      4 WINTER MIST         apple_frame FALSE  
##  5      1      5 QUIET STREAM        apple_frame FALSE  
##  6      1      6 WINTER MOON         apple_frame FALSE  
##  7      1      7 AUTUMN MOUNTAINS    apple_frame FALSE  
##  8      1      8 PEACEFUL VALLEY     apple_frame FALSE  
##  9      1      9 SEASCAPE            apple_frame FALSE  
## 10      1     10 MOUNTAIN LAKE       apple_frame FALSE  
## # … with 26,991 more rows
```
---
# Some data cleaning 

```r
bob_ross %>% 
  gather(element, present, apple_frame:wood_framed) %>% 
  mutate(present = as.logical(present)) %>% 
  extract(episode, into = c("season", "ep_num"), 
          regex = "S(.*)E(.*)") %>% 
  mutate_at(1:2, parse_number) %>% 
  arrange(season, ep_num)
```

```
## # A tibble: 27,001 x 5
##    season ep_num title               element         present
##     <dbl>  <dbl> <chr>               <chr>           <lgl>  
##  1      1      1 A WALK IN THE WOODS apple_frame     FALSE  
##  2      1      1 A WALK IN THE WOODS aurora_borealis FALSE  
##  3      1      1 A WALK IN THE WOODS barn            FALSE  
##  4      1      1 A WALK IN THE WOODS beach           FALSE  
##  5      1      1 A WALK IN THE WOODS boat            FALSE  
##  6      1      1 A WALK IN THE WOODS bridge          FALSE  
##  7      1      1 A WALK IN THE WOODS building        FALSE  
##  8      1      1 A WALK IN THE WOODS bushes          TRUE   
##  9      1      1 A WALK IN THE WOODS cabin           FALSE  
## 10      1      1 A WALK IN THE WOODS cactus          FALSE  
## # … with 26,991 more rows
```
