Increasing Reproducibility and Efficiency with R
…
---
# 📦 [`tibble`](https://tibble.tidyverse.org/): data structure

A table structure with classes `"tbl_df", "tbl", "data.frame"`.

- Easy to create
- Has nice printing qualities

```r
library(tibble)
(my_tbl <- tibble(x = rnorm(100), y= x*5 +2))
```

```
## # A tibble: 100 x 2
##         x     y
##     <dbl> <dbl>
## 1 -1.74   -6.68
## 2 -0.827  -2.14
## 3  0.633   5.16
## 4  1.29    8.43
## 5  0.0783  2.39
## # … with 95 more rows
```
…
???
The next package in the core tidyverse is readr, which deals with reading in data. I have a screenshot here of some data that I got from Nick of significant activities from syria. It has 7 columns: area, event category, event sub-category, time, date, and MGRS location of friendly and non-partner forces. I use the col_character and col_date functions to read in the data. 

---
# `readr` (cont.)

```r
sigacts %>% select(Event, `Time of Event`)
```

```
## # A tibble: 1,869 x 2
##   Event     `Time of Event`
##   <chr>     <chr>          
## 1 Cross DML 1505z          
## 2 Cross DML 1505z          
## 3 IED       1740z          
## 4 UAS       0103Z          
## 5 Cross DML 0013z          
## # … with 1,864 more rows
```
…
